…
Left joins are the most common, because they add data from a smaller
table y into a larger table x without removing anything from x.

``` r
fas_df = 
  left_join(pups_df, litter_df, by = "litter_number") |>
  select(litter_number, everything())

fas_df
```

    ## # A tibble: 313 × 15
    ##   litter_number sex   pd_ears pd_eyes pd_pivot pd_walk dose  day_of_tx
    ##   <chr>         <fct>   <dbl>   <dbl>    <dbl>   <dbl> <chr> <chr>    
    ## 1 #85           male        4      13        7      11 con   7        
    ## 2 #85           male        4      13        7      12 con   7        
    ## 3 #1/2/95/2     male        5      13        7       9 con   7        
    ## 4 #1/2/95/2     male        5      13        8      10 con   7        
    ## 5 #5/5/3/83/3-3 male        5      13        8      10 con   7        
    ## # ℹ 308 more rows
    ## # ℹ 7 more variables: gd0_weight <dbl>, gd18_weight <dbl>, gd_of_birth <dbl>,
    ## #   pups_born_alive <dbl>, pups_dead_birth <dbl>, pups_survive <dbl>,
    ## #   wt_gain <dbl>
